%YAML 1.1
%TAG !u! tag:unity3d.com,2011:
--- !u!114 &11400000
MonoBehaviour:
  m_ObjectHideFlags: 0
  m_CorrespondingSourceObject: {fileID: 0}
  m_PrefabInstance: {fileID: 0}
  m_PrefabAsset: {fileID: 0}
  m_GameObject: {fileID: 0}
  m_Enabled: 1
  m_EditorHideFlags: 0
  m_Script: {fileID: 11500000, guid: ae0543fe805424df99fe08ce744cbe49, type: 3}
  m_Name: idle@zombie
  m_EditorClassIdentifier: 
  m_PoseEntries:
  - path: stomach
    localPosition: {x: 0, y: 0, z: 0}
    localRotation: {x: 0, y: 0, z: 0.7071068, w: 0.7071068}
    localScale: {x: 1, y: 1, z: 1}
  - path: stomach/chest
    localPosition: {x: 0.31250003, y: 0, z: 0}
    localRotation: {x: -0, y: -0, z: -0, w: 1}
    localScale: {x: 1, y: 1, z: 1}
  - path: stomach/chest/right_upperarm
    localPosition: {x: 0.3370004, y: 0, z: 0}
    localRotation: {x: 0, y: 0, z: -0.82764095, w: 0.561258}
    localScale: {x: 1, y: 1, z: 1}
  - path: stomach/chest/right_upperarm/right_forearm
    localPosition: {x: 0.33895537, y: -0.006087899, z: 0}
    localRotation: {x: 0, y: 0, z: 0.23951869, w: 0.9708918}
    localScale: {x: 1, y: 1, z: 1}
  - path: stomach/chest/left_upperarm
    localPosition: {x: 0.3370004, y: 0, z: 0}
    localRotation: {x: 0, y: 0, z: -0.9059109, w: 0.42346835}
    localScale: {x: 1, y: 1, z: 1}
  - path: stomach/chest/left_upperarm/left_forearm
    localPosition: {x: 0.3389554, y: 0.006087929, z: 0}
    localRotation: {x: 0, y: 0, z: 0.3317053, w: 0.9433831}
    localScale: {x: 1, y: 1, z: 1}
  - path: stomach/chest/head
    localPosition: {x: 0.37500045, y: 0, z: 0}
    localRotation: {x: 0, y: 0, z: 0, w: 1}
    localScale: {x: 1, y: 1, z: 1}
  - path: stomach/leg_root/right_thigh
    localPosition: {x: 0.050500043, y: 0, z: 0}
    localRotation: {x: -0, y: -0, z: 0.99093515, w: 0.13434125}
    localScale: {x: 1, y: 1, z: 1}
  - path: stomach/leg_root/right_thigh/right_lowerleg
    localPosition: {x: 0.3362338, y: -0.0042580366, z: 0}
    localRotation: {x: 0, y: 0, z: -0.07036589, w: 0.9975213}
    localScale: {x: 1, y: 1, z: 1}
  - path: stomach/leg_root/left_thigh
    localPosition: {x: 0.050500043, y: 0, z: 0}
    localRotation: {x: -0, y: -0, z: -0.96902514, w: 0.24696207}
    localScale: {x: 1, y: 1, z: 1}
  - path: stomach/leg_root/left_thigh/left_lowerleg
    localPosition: {x: 0.33623374, y: 0.0042580515, z: 0}
    localRotation: {x: 0, y: 0, z: -0.23283638, w: 0.97251594}
    localScale: {x: 1, y: 1, z: 1}
