@startuml Blocks

namespace Blocks{

    interface IPrefabTile {
        {abstract} +GameObject GetPrefab
    }

    interface IAttackable {

    }

    class PrefabTile {

    }

    abstract class DestructibleBlock {
        {abstract} +void DropItem()
        {abstract} +void ApplyDamege(damege)
    }

    class GameObject{

    }

    GameObject o-down-> DestructibleBlock
    PrefabTile o-down-> GameObject
    PrefabTile .up.|> IPrefabTile
    PrefabTile -up-|> Tile

    DestructibleBlock .up.|> IAttackable
}

@enduml
